-1 3.25464616667
-1 6.40439583333
-1 9.675875
-1 10.4397708333
-1 11.2462916667
-1 12.0880205
-1 12.8383125
-1 14.0288958333
-1 16.0221666667
-1 17.4946458333
-1 19.1791871667
-1 20.4680836667
-1 22.40875
-1 23.212208
-1 24.0524586667
-1 24.8096663333
-1 25.6285413333
-1 26.8132913333
-1 27.2539375
-1 27.9160625
-1 28.4941878333
-1 28.8328955
-1 29.5944163333
-1 30.0806041667
-1 30.4611878333
-1 31.1176878333
-1 32.046125
-1 33.2350621667
-1 33.6303333333
-1 34.2612711667
-1 35.2301461667
-1 35.8932086667
-1 36.8601041667
-1 37.4607291667
-1 38.030167
-1 38.4098333333
-1 39.1042711667
-1 39.6591875
-1 40.028167
-1 40.6585413333
-1 41.6399586667
-1 42.3026253333
-1 42.7931666667
-1 43.2181871667
-1 43.863792
-1 44.8361455
-1 45.4817705
-1 46.0515625
-1 46.457542
-1 47.1198541667
-1 48.0207086667
-1 48.6828545
-1 49.2441246667
-1 49.6417503333
-1 50.4238128333
-1 51.2778538333
-1 52.0089371667
-1 52.8054788333
-1 54.398958
-1 55.2058538333
-1 56.0281461667
-1 57.2000413333
-1 57.5897083333
-1 58.3920628333
-1 59.2339586667
-1 60.4174795
-1 60.8080205
-1 61.6092913333
-1 62.3983955
-1 64.07225
-1 64.8441246667
-1 65.6448538333
-1 66.8931041667
-1 67.2294378333
-1 68.0774996667
-1 68.8492086667
-1 70.0499375
-1 70.4192705
-1 71.204583
-1 71.9764583333
-1 73.2936455
-1 73.6756878333
-1 74.4550211667
-1 75.2831246667
-1 76.0778746667
-1 76.8689795
-1 77.3054378333
-1 78.0207288333
-1 78.2322295
-1 79.6366878333
-1 80.0453958333
-1 80.4559166667
-1 81.2430413333
-1 81.6459375
-1 83.2388541667
-1 84.463167
-1 84.6589166667
-1 86.0668125
-1 86.4238121667
-1 86.8027711667
-1 87.2630003333
-1 87.5735628333
-1 88.0212705
-1 88.4169166667
-1 88.8332295
-1 89.664083
-1 90.8439586667
-1 91.0670833333
-1 92.4056871667
-1 92.803125
-1 93.1993125
-1 94.0501041667
-1 94.4345205
-1 96.0180211667
-1 97.2283538333
-1 97.448917
-1 98.8179996667
-1 99.1871666667
-1 99.5788336667
-1 99.9857083333
-1 100.386270833
-1 100.822187167
-1 101.260104167
-1 101.649396167
-1 102.020000333
-1 102.4114795
-1 103.605312167
-1 104.036145833
-1 105.272249667
-1 105.6658955
-1 106.068437833
-1 106.85175
-1 107.273333667
-1 108.872958667
-1 110.011103833
-1 110.437770833
-1 111.641958333
-1 112.017458333
-1 112.434333
-1 112.834687833
-1 113.205667
-1 113.662624667
-1 114.044666333
-1 114.467
